…
Select

select(hotels, lead_time)

## # A tibble: 119,390 x 1
##    lead_time
##        <dbl>
##  1       342
##  2       737
##  3         7
##  4        13
##  5        14
##  6        14
##  7         0
##  8         9
##  9        85
## 10        75
## # ... with 119,380 more rows

select(hotels, hotel, lead_time)

## # A tibble: 119,390 x 2
##    hotel        lead_time
##    <chr>            <dbl>
##  1 Resort Hotel       342
##  2 Resort Hotel       737
##  3 Resort Hotel         7
##  4 Resort Hotel        13
##  5 Resort Hotel        14
##  6 Resort Hotel        14
##  7 Resort Hotel         0
##  8 Resort Hotel         9
##  9 Resort Hotel        85
## 10 Resort Hotel        75
## # ... with 119,380 more rows

hotels %>%
  select(hotel, lead_time) %>%
  arrange(desc(lead_time))

## # A tibble: 119,390 x 2
##    hotel        lead_time
##    <chr>            <dbl>
##  1 Resort Hotel       737
##  2 Resort Hotel       709
##  3 City Hotel         629
##  4 City Hotel         629
##  5 City Hotel         629
##  6 City Hotel         629
##  7 City Hotel         629
##  8 City Hotel         629
##  9 City Hotel         629
## 10 City Hotel         629
## # ... with 119,380 more rows

Select a range of variables

hotels %>%
  select(hotel:arrival_date_month)

## # A tibble: 119,390 x 5
##    hotel        is_canceled lead_time arrival_date_year arrival_date_month
##    <chr>              <dbl>     <dbl>             <dbl> <chr>             
##  1 Resort Hotel           0       342              2015 July              
##  2 Resort Hotel           0       737              2015 July              
##  3 Resort Hotel           0         7              2015 July              
##  4 Resort Hotel           0        13              2015 July              
##  5 Resort Hotel           0        14              2015 July              
##  6 Resort Hotel           0        14              2015 July              
##  7 Resort Hotel           0         0              2015 July              
##  8 Resort Hotel           0         9              2015 July              
##  9 Resort Hotel           1        85              2015 July              
## 10 Resort Hotel           1        75              2015 July              
## # ... with 119,380 more rows

hotels %>%
  select(starts_with("arrival"))

## # A tibble: 119,390 x 4
##    arrival_date_year arrival_date_mon~ arrival_date_week_n~ arrival_date_day_of~
##                <dbl> <chr>                            <dbl>                <dbl>
##  1              2015 July                                27                    1
##  2              2015 July                                27                    1
##  3              2015 July                                27                    1
##  4              2015 July                                27                    1
##  5              2015 July                                27                    1
##  6              2015 July                                27                    1
##  7              2015 July                                27                    1
##  8              2015 July                                27                    1
##  9              2015 July                                27                    1
## 10              2015 July                                27                    1
## # ... with 119,380 more rows
…
hotels %>%
  filter(adults == "0", children >= "1" | babies >= "1") %>%
  # | means "or"
  select(hotel, adults, babies, children)

## # A tibble: 223 x 4
##    hotel      adults babies children
##    <chr>       <dbl>  <dbl>    <dbl>
##  1 City Hotel      0      0        3
##  2 City Hotel      0      0        2
##  3 City Hotel      0      0        2
##  4 City Hotel      0      0        2
##  5 City Hotel      0      0        2
##  6 City Hotel      0      0        3
##  7 City Hotel      0      1        2
##  8 City Hotel      0      0        2
##  9 City Hotel      0      0        2
## 10 City Hotel      0      0        2
## # ... with 213 more rows

Mutation

hotels %>%
  mutate(little_ones = children + babies) %>%
  select(children, babies, little_ones) %>%
  arrange(desc(little_ones))

## # A tibble: 119,390 x 3
##    children babies little_ones
##       <dbl>  <dbl>       <dbl>
##  1       10      0          10
##  2        0     10          10
##  3        0      9           9
##  4        2      1           3
##  5        2      1           3
##  6        2      1           3
##  7        3      0           3
##  8        2      1           3
##  9        2      1           3
## 10        3      0           3
## # ... with 119,380 more rows
…
