…
names(vaccine)

## [1] "title"     "score"     "id"        "url"       "comms_num" "created"  
## [7] "body"      "timestamp"

Select data

vaccine %>%
  select(title, score) %>%
  arrange(desc(score))

## # A tibble: 1,531 x 2
##    title                                                 score
##    <chr>                                                 <dbl>
##  1 I would rage if this was handed to me...               1184
##  2 From /r/Rage                                             40
##  3 Vaccines exposed                                         37
##  4 Do not give a platform for anti-vaxxers to propagate.    35
##  5 Oh no! I got vaccinated!                                 30
##  6 Vaccines have a huge side effect                         28
##  7 Meet my friend's anti-vax wife                           28
##  8 Typical debate with an anti-vaxer (I'm teal)             27
##  9 How ironic                                               26
## 10 Vaccinate folks.                                         26
## # ... with 1,521 more rows
…
## # A tibble: 4 x 8
##   title     score id     url      comms_num created body     timestamp          
##   <chr>     <dbl> <chr>  <chr>        <dbl>   <dbl> <chr>    <dttm>             
## 1 Health C~     7 lt74vw https:/~         0  1.61e9  <NA>    2021-02-27 06:33:45
## 2 Canada: ~     6 lkslm6 https:/~         0  1.61e9  <NA>    2021-02-16 11:36:28
## 3 Fuck you~    10 g6jkhp https:/~         8  1.59e9 "https:~ 2020-04-23 20:23:42
## 4 Comment       0 ej9xu~ <NA>             0  1.55e9 "What d~ 2019-03-25 02:45:21

vaccine %>%
  filter(score >= "1")

## # A tibble: 1,335 x 8
##    title     score id    url      comms_num created body     timestamp          
##    <chr>     <dbl> <chr> <chr>        <dbl>   <dbl> <chr>    <dttm>             
##  1 Health C~     7 lt74~ https:/~         0  1.61e9  <NA>    2021-02-27 06:33:45
##  2 COVID-19~     2 lsh0~ https:/~         1  1.61e9  <NA>    2021-02-26 07:11:07
##  3 Coronavi~     6 lohl~ https:/~         0  1.61e9  <NA>    2021-02-21 07:50:08
##  4 Canadian~     1 lnpt~ https:/~         0  1.61e9  <NA>    2021-02-20 06:35:13
##  5 Canada: ~     6 lksl~ https:/~         0  1.61e9  <NA>    2021-02-16 11:36:28
##  6 Canada: ~     5 lftb~ https:/~         0  1.61e9  <NA>    2021-02-09 13:17:11
##  7 Comment       1 ej9x~ <NA>             0  1.55e9 "Your O~ 2019-03-25 02:34:53
##  8 Fuck you~    10 g6jk~ https:/~         8  1.59e9 "https:~ 2020-04-23 20:23:42
##  9 Comment       1 ej9x~ <NA>             0  1.55e9 "When t~ 2019-03-25 02:35:47
## 10 Comment       2 ejac~ <NA>             0  1.55e9 "The \"~ 2019-03-25 05:50:20
## # ... with 1,325 more rows

Mutate

vaccine %>%
  mutate(bigger_ones = score + comms_num) %>%
  select(score, comms_num, bigger_ones) %>%
  arrange(desc(bigger_ones))

## # A tibble: 1,531 x 3
##    score comms_num bigger_ones
##    <dbl>     <dbl>       <dbl>
##  1  1184       596        1780
##  2     0       166         166
##  3    18        74          92
##  4     7        49          56
##  5     1        55          56
##  6    40        13          53
##  7     4        46          50
##  8     0        49          49
##  9    19        24          43
## 10    27        16          43
## # ... with 1,521 more rows

Group and Summarize Data

summary <- vaccine %>%
  group_by(score) %>%
  summarize(mean_score = mean(score))
summary

## # A tibble: 41 x 2
##    score mean_score
##    <dbl>      <dbl>
##  1   -12        -12
##  2   -10        -10
##  3    -6         -6
##  4    -5         -5
##  5    -4         -4
##  6    -3         -3
##  7    -2         -2
##  8    -1         -1
##  9     0          0
## 10     1          1
## # ... with 31 more rows
…
Gather

library(dplyr)
situation <- tibble(time = as.Date('2021-04-27') + 0:9,
                    X = rnorm(10, 0, 1), 
                    Y = rnorm(10, 0, 2),
                    Z = rnorm(10, 0,4))
gather(situation, "score", "comms_num",-time)

## # A tibble: 30 x 3
##    time       score comms_num
##    <date>     <chr>     <dbl>
##  1 2021-04-27 X       0.148  
##  2 2021-04-28 X       0.553  
##  3 2021-04-29 X      -1.16   
##  4 2021-04-30 X      -0.00650
##  5 2021-05-01 X       0.107  
##  6 2021-05-02 X      -1.64   
##  7 2021-05-03 X      -0.569  
##  8 2021-05-04 X      -0.617  
##  9 2021-05-05 X       1.33   
## 10 2021-05-06 X      -0.762  
## # ... with 20 more rows
…
